<?xml version="1.0" encoding="UTF-8"?>
<testng-results skipped="0" failed="0" ignored="0" total="2" passed="2">
  <reporter-output>
  </reporter-output>
  <suite name="Surefire suite" duration-ms="135" started-at="2020-03-16T15:08:29Z" finished-at="2020-03-16T15:08:29Z">
    <groups>
    </groups>
    <test name="Surefire test" duration-ms="135" started-at="2020-03-16T15:08:29Z" finished-at="2020-03-16T15:08:29Z">
      <class name="FailedTestcases.Test1">
        <test-method status="PASS" signature="test1()[pri:0, instance:FailedTestcases.Test1@6d78f375]" name="test1" duration-ms="7" started-at="2020-03-16T15:08:29Z" finished-at="2020-03-16T15:08:29Z">
          <reporter-output>
          </reporter-output>
        </test-method> <!-- test1 -->
      </class> <!-- FailedTestcases.Test1 -->
      <class name="Pamterization.ParameterTest">
        <test-method status="PASS" signature="Paramtest(java.lang.String, java.lang.String)[pri:0, instance:Pamterization.ParameterTest@50c87b21]" name="Paramtest" duration-ms="0" started-at="2020-03-16T15:08:29Z" finished-at="2020-03-16T15:08:29Z">
          <params>
            <param index="0">
              <value>
                <![CDATA[userName]]>
              </value>
            </param>
            <param index="1">
              <value>
                <![CDATA[Password]]>
              </value>
            </param>
          </params>
          <reporter-output>
          </reporter-output>
        </test-method> <!-- Paramtest -->
      </class> <!-- Pamterization.ParameterTest -->
    </test> <!-- Surefire test -->
  </suite> <!-- Surefire suite -->
</testng-results>
